<?xml version="1.0" encoding="UTF-8" standalone="no"?>
<!-- Created with Inkscape (http://www.inkscape.org/) -->

<svg
   xmlns:dc="http://purl.org/dc/elements/1.1/"
   xmlns:cc="http://creativecommons.org/ns#"
   xmlns:rdf="http://www.w3.org/1999/02/22-rdf-syntax-ns#"
   xmlns:svg="http://www.w3.org/2000/svg"
   xmlns="http://www.w3.org/2000/svg"
   xmlns:sodipodi="http://sodipodi.sourceforge.net/DTD/sodipodi-0.dtd"
   xmlns:inkscape="http://www.inkscape.org/namespaces/inkscape"
   width="64"
   height="64"
   viewBox="0 0 64 64.000001"
   id="svg2"
   version="1.1"
   inkscape:version="0.91pre3 r13670"
   sodipodi:docname="minigame_star.svg"
   inkscape:export-filename="D:\Code\GDLArea51Jam\Assets\Resources\Sprites\minigame_star.png"
   inkscape:export-xdpi="89.963303"
   inkscape:export-ydpi="89.963303">
  <defs
     id="defs4" />
  <sodipodi:namedview
     id="base"
     pagecolor="#d5f0cd"
     bordercolor="#666666"
     borderopacity="1.0"
     inkscape:pageopacity="0"
     inkscape:pageshadow="2"
     inkscape:zoom="13.046875"
     inkscape:cx="32"
     inkscape:cy="32"
     inkscape:document-units="px"
     inkscape:current-layer="layer1"
     showgrid="false"
     units="px"
     inkscape:window-width="1920"
     inkscape:window-height="1017"
     inkscape:window-x="-8"
     inkscape:window-y="-8"
     inkscape:window-maximized="1" />
  <metadata
     id="metadata7">
    <rdf:RDF>
      <cc:Work
         rdf:about="">
        <dc:format>image/svg+xml</dc:format>
        <dc:type
           rdf:resource="http://purl.org/dc/dcmitype/StillImage" />
        <dc:title></dc:title>
      </cc:Work>
    </rdf:RDF>
  </metadata>
  <g
     inkscape:label="Layer 1"
     inkscape:groupmode="layer"
     id="layer1"
     transform="translate(0,-988.36216)">
    <path
       sodipodi:type="star"
       style="opacity:0.99100001;fill:#fafafa;fill-opacity:1;stroke:#1a1a1a;stroke-width:3;stroke-linecap:square;stroke-linejoin:round;stroke-miterlimit:4;stroke-dasharray:none;stroke-dashoffset:0;stroke-opacity:1"
       id="path4136"
       sodipodi:sides="13"
       sodipodi:cx="29.355688"
       sodipodi:cy="29.508982"
       sodipodi:r1="24.846635"
       sodipodi:r2="22.498453"
       sodipodi:arg1="-0.47813781"
       sodipodi:arg2="-0.23647683"
       inkscape:flatsided="true"
       inkscape:rounded="0.7"
       inkscape:randomized="0.2"
       d="m 56.035909,20.170307 c 4.918554,7.052167 -5.91699,-2.267222 -5.639969,6.807439 0.277021,9.074661 7.179381,6.696052 4.526194,14.083556 -2.653187,7.387504 -0.977027,-1.166859 -6.609659,5.618883 -5.632632,6.785742 -5.292109,5.002513 -14.083494,3.997629 -8.791385,-1.004884 -0.939258,5.996688 -9.265024,3.935849 C 16.63819,52.552825 16.375863,47.662814 9.899371,43.666769 3.4228793,39.670724 8.1351186,45.342674 6.2183448,37.377358 4.3015709,29.412042 8.04959,29.970721 7.9266715,21.738209 7.8037529,13.505697 -0.18902608,20.179252 6.3176225,13.990612 12.824271,7.8019722 11.606942,10.429568 18.502629,6.4403627 25.398316,2.4511575 27.226236,-0.34679305 35.791016,2.8692109 44.355795,6.0852148 39.37007,0.1804713 44.602075,6.3199596 49.834079,12.459448 51.117356,13.11814 56.035909,20.170307 Z"
       transform="translate(1.6862275,991.88791)"
       inkscape:transform-center-x="-1.7198014"
       inkscape:transform-center-y="-1.2206828" />
  </g>
</svg>
