<?xml version="1.0" encoding="UTF-8" standalone="no"?>
<!-- Created with Inkscape (http://www.inkscape.org/) -->

<svg
   xmlns:dc="http://purl.org/dc/elements/1.1/"
   xmlns:cc="http://creativecommons.org/ns#"
   xmlns:rdf="http://www.w3.org/1999/02/22-rdf-syntax-ns#"
   xmlns:svg="http://www.w3.org/2000/svg"
   xmlns="http://www.w3.org/2000/svg"
   xmlns:sodipodi="http://sodipodi.sourceforge.net/DTD/sodipodi-0.dtd"
   xmlns:inkscape="http://www.inkscape.org/namespaces/inkscape"
   width="64"
   height="64"
   viewBox="0 0 63.999999 63.999999"
   id="svg4138"
   version="1.1"
   inkscape:version="0.91pre3 r13670"
   sodipodi:docname="minigame_cursor.svg"
   inkscape:export-filename="D:\Code\GDLArea51Jam\Assets\Resources\Sprites\minigame_cursor.png"
   inkscape:export-xdpi="89.963303"
   inkscape:export-ydpi="89.963303">
  <defs
     id="defs4140" />
  <sodipodi:namedview
     id="base"
     pagecolor="#ffffff"
     bordercolor="#666666"
     borderopacity="1.0"
     inkscape:pageopacity="0.0"
     inkscape:pageshadow="2"
     inkscape:zoom="6.5234375"
     inkscape:cx="59.835911"
     inkscape:cy="22.96239"
     inkscape:document-units="px"
     inkscape:current-layer="layer1"
     showgrid="false"
     units="px"
     inkscape:window-width="1920"
     inkscape:window-height="1017"
     inkscape:window-x="-8"
     inkscape:window-y="-8"
     inkscape:window-maximized="1" />
  <metadata
     id="metadata4143">
    <rdf:RDF>
      <cc:Work
         rdf:about="">
        <dc:format>image/svg+xml</dc:format>
        <dc:type
           rdf:resource="http://purl.org/dc/dcmitype/StillImage" />
        <dc:title></dc:title>
      </cc:Work>
    </rdf:RDF>
  </metadata>
  <g
     inkscape:label="Layer 1"
     inkscape:groupmode="layer"
     id="layer1"
     transform="translate(0,-988.3622)">
    <g
       id="g4694"
       transform="matrix(0.98336408,0,0,0.98233245,1.1087948,17.853142)"
       style="stroke:#d35f5f;fill:none"
       inkscape:export-xdpi="89.963303"
       inkscape:export-ydpi="89.963303">
      <path
         d="M 54.342516,1020.5538 A 22.917366,22.917366 0 0 1 31.452149,1043.4711 22.917366,22.917366 0 0 1 8.5078475,1020.6078 22.917366,22.917366 0 0 1 31.344153,997.63655 22.917366,22.917366 0 0 1 54.342261,1020.4458"
         sodipodi:open="true"
         sodipodi:end="6.2784729"
         sodipodi:start="0"
         sodipodi:ry="22.917366"
         sodipodi:rx="22.917366"
         sodipodi:cy="1020.5538"
         sodipodi:cx="31.42515"
         sodipodi:type="arc"
         id="path4686"
         style="opacity:0.99100001;fill:none;fill-opacity:1;stroke:#d35f5f;stroke-width:3;stroke-linecap:square;stroke-linejoin:round;stroke-miterlimit:4;stroke-dasharray:none;stroke-dashoffset:0;stroke-opacity:1" />
      <path
         style="opacity:0.99100001;fill:none;fill-opacity:1;stroke:#d35f5f;stroke-width:2.19475961;stroke-linecap:square;stroke-linejoin:round;stroke-miterlimit:4;stroke-dasharray:none;stroke-dashoffset:0;stroke-opacity:1"
         id="path4688"
         sodipodi:type="arc"
         sodipodi:cx="31.426037"
         sodipodi:cy="1020.5538"
         sodipodi:rx="16.959211"
         sodipodi:ry="16.575062"
         sodipodi:start="0"
         sodipodi:end="6.2784729"
         sodipodi:open="true"
         d="m 48.385248,1020.5538 a 16.959211,16.575062 0 0 1 -16.939231,16.575 16.959211,16.575062 0 0 1 -16.979144,-16.536 16.959211,16.575062 0 0 1 16.899225,-16.614 16.959211,16.575062 0 0 1 17.018962,16.4969" />
      <path
         d="m 43.296162,1020.5538 a 11.869358,10.947859 0 0 1 -11.855375,10.9478 11.869358,10.947859 0 0 1 -11.883309,-10.922 11.869358,10.947859 0 0 1 11.827376,-10.9736 11.869358,10.947859 0 0 1 11.911176,10.8962"
         sodipodi:open="true"
         sodipodi:end="6.2784729"
         sodipodi:start="0"
         sodipodi:ry="10.947859"
         sodipodi:rx="11.869358"
         sodipodi:cy="1020.5538"
         sodipodi:cx="31.426804"
         sodipodi:type="arc"
         id="path4690"
         style="opacity:0.99100001;fill:none;fill-opacity:1;stroke:#d35f5f;stroke-width:1.49222648;stroke-linecap:square;stroke-linejoin:round;stroke-miterlimit:4;stroke-dasharray:none;stroke-dashoffset:0;stroke-opacity:1" />
      <path
         style="opacity:0.99100001;fill:none;fill-opacity:1;stroke:#d35f5f;stroke-width:0.70506382;stroke-linecap:square;stroke-linejoin:round;stroke-miterlimit:4;stroke-dasharray:none;stroke-dashoffset:0;stroke-opacity:1"
         id="path4692"
         sodipodi:type="arc"
         sodipodi:cx="31.427711"
         sodipodi:cy="1020.5538"
         sodipodi:rx="5.8255267"
         sodipodi:ry="4.9797616"
         sodipodi:start="0"
         sodipodi:end="6.2784729"
         sodipodi:open="true"
         d="m 37.253238,1020.5538 a 5.8255267,4.9797616 0 0 1 -5.818663,4.9797 5.8255267,4.9797616 0 0 1 -5.832374,-4.968 5.8255267,4.9797616 0 0 1 5.804921,-4.9915 5.8255267,4.9797616 0 0 1 5.846052,4.9563" />
    </g>
  </g>
</svg>
