{
    "SceneNumber": 2,
    "IsMiniGame": false,
    "MiniGameNumber": 0,
    "Sprites": [
      {
        "SpriteName": "scene02_mountains1",
        "InitialPosition": { "x": 0, "y": -200, "z": 47 },
        "InitialRotation": 0,
        "FinalPosition": { "x": 0, "y": -350, "z": 47 },
        "FinalRotation": 0,

        "DisplayStartTime": 0,
        "DisplayEndTime": 12,
        "AnimationStartTime": 0,
        "AnimationEndTime": 12,

        "FadeOutDuration": 0.5,
        "FadeInDuration": 0.5
      },
      {
        "SpriteName": "scene02_mountains2",
        "InitialPosition": { "x": 0, "y": -200, "z": 41 },
        "InitialRotation": 0,
        "FinalPosition": { "x": 0, "y": -300, "z": 41 },
        "FinalRotation": 0,

        "DisplayStartTime": 0,
        "DisplayEndTime": 12,
        "AnimationStartTime": 0,
        "AnimationEndTime": 12,

        "FadeOutDuration": 0.5,
        "FadeInDuration": 0.5
      },
      {
        "SpriteName": "scene02_mountains3",
        "InitialPosition": { "x": 0, "y": -200, "z": 83 },
        "InitialRotation": 0,
        "FinalPosition": { "x": 0, "y": -250, "z": 83 },
        "FinalRotation": 0,

        "DisplayStartTime": 0,
        "DisplayEndTime": 12,
        "AnimationStartTime": 0,
        "AnimationEndTime": 12,

        "FadeOutDuration": 0.5,
        "FadeInDuration": 0.5
      },
      {
        "SpriteName": "scene02_suns",
        "InitialPosition": { "x": -190, "y": 160, "z": 45 },
        "InitialRotation": 0,
        "FinalPosition": { "x": 45, "y": 250, "z": 55 },
        "FinalRotation": 270,

        "DisplayStartTime": 0,
        "DisplayEndTime": 12,
        "AnimationStartTime": 0,
        "AnimationEndTime": 12,

        "FadeOutDuration": 0.5,
        "FadeInDuration": 0.5
      }
    ],
    "TextLines": [
      {
        "TextLine": "Under the twin shadows of a binary star,",
        "DisplayStartTime": 0.5,
        "DisplayEndTime": 5.5
      },
      {
        "TextLine": "an alien race rises from the primordial soup.",
        "DisplayStartTime": 5.5,
        "DisplayEndTime": 11.5
      }
    ]
  }