{
    "SceneNumber": 17,
    "IsMiniGame": false,
    "MiniGameNumber": 0,
    "HasNova": true,
    "NovaStartTime": 19,
    "Sprites": [
      {
        "SpriteName": "scene08_room",
        "InitialPosition": { "x": 0, "y": 0, "z": 50 },
        "InitialRotation": 0,
        "FinalPosition": { "x": 0, "y": 0, "z": 50 },
        "FinalRotation": 0,

        "DisplayStartTime": 0,
        "DisplayEndTime": 14.5,
        "AnimationStartTime": 0,
        "AnimationEndTime": 14.5,

        "FadeOutDuration": 0.5,
        "FadeInDuration": 0.5
      },
      {
        "SpriteName": "scene18_roomnochair",
        "InitialPosition": { "x": 0, "y": 0, "z": 50 },
        "InitialRotation": 0,
        "FinalPosition": { "x": 0, "y": 0, "z": 50 },
        "FinalRotation": 0,

        "DisplayStartTime": 14,
        "DisplayEndTime": 23,
        "AnimationStartTime": 0,
        "AnimationEndTime": 0,

        "FadeOutDuration": 0.5,
        "FadeInDuration": 0.5
      },
      {
        "SpriteName": "scene14_computer",
        "InitialPosition": { "x": 5, "y": 5, "z": 51 },
        "InitialRotation": 0,
        "FinalPosition": { "x": 5, "y": 5, "z": 51 },
        "FinalRotation": 0,

        "DisplayStartTime": 0,
        "DisplayEndTime": 23,
        "AnimationStartTime": 0,
        "AnimationEndTime": 23,

        "FadeOutDuration": 0.5,
        "FadeInDuration": 0.5
      },
      {
        "SpriteName": "scene08_windowsummer",
        "InitialPosition": { "x": 0, "y": 0, "z": 51 },
        "InitialRotation": 0,
        "FinalPosition": { "x": 0, "y": 0, "z": 51 },
        "FinalRotation": 0,

        "DisplayStartTime": 0,
        "DisplayEndTime": 23,
        "AnimationStartTime": 0,
        "AnimationEndTime": 23,

        "FadeOutDuration": 0.5,
        "FadeInDuration": 0.5
      },
      {
        "SpriteName": "scene05_blank",
        "InitialPosition": { "x": 0, "y": 0, "z": 100 },
        "InitialRotation": 0,
        "FinalPosition": { "x": 0, "y": 0, "z": 100 },
        "FinalRotation": 0,

        "DisplayStartTime": 0,
        "DisplayEndTime": 31,
        "AnimationStartTime": 0,
        "AnimationEndTime": 0,

        "FadeOutDuration": 0.5,
        "FadeInDuration": 0.5
      },
      {
        "SpriteName": "scene18_outsidechair",
        "InitialPosition": { "x": -28, "y": 0, "z": -20 },
        "InitialRotation": 0,
        "FinalPosition": { "x": -28, "y": 0, "z": -20 },
        "FinalRotation": 0,

        "DisplayStartTime": 16,
        "DisplayEndTime": 23,
        "AnimationStartTime": 0,
        "AnimationEndTime": 0,

        "FadeOutDuration": 0.5,
        "FadeInDuration": 1.5
      }
    ],
    "TextLines": [
      {
        "TextLine": "For hours I sat at that screen,",
        "DisplayStartTime": 0.5,
        "DisplayEndTime": 3.5
      },
      {
        "TextLine": "trying to find a blip in the dark",
        "DisplayStartTime": 4.5,
        "DisplayEndTime": 7.5
      },
      {
        "TextLine": "Maybe what I'm looking for isn't up there?",
        "DisplayStartTime": 9.5,
        "DisplayEndTime": 13.0
      },
      {
        "TextLine": " Maybe its out there?",
        "DisplayStartTime": 13.5,
        "DisplayEndTime": 17
      }
    ]
  }